t,x,y
24,247.83,347.67
25,267.4,337.9
26,251.8,353.5
27,270.4,333.0
28,245.0,352.6
29,263.6,329.1
30,229.4,349.6
31,260.7,336.9
32,234.3,350.6
33,262.7,333.0
34,238.3,342.8
35,258.8,328.1
36,222.6,332.0
37,239.2,324.2
38,233.3,324.2
39,197.1,305.6
40,206.9,312.4
41,197.1,303.6
42,198.1,299.7
43,195.2,288.9
44,193.2,281.1
45,196.1,273.3
46,202.9,268.4
47,204.9,256.7
48,205.9,275.3
49,212.7,275.3
50,220.5,257.7
51,220.5,268.5
52,223.4,257.7
53,234.2,263.6
54,239.1,268.5
55,243.0,261.7
56,251.8,254.9
57,251.8,266.6
58,256.7,262.7
59,258.7,259.8
60,261.6,263.7
61,262.6,269.6
62,268.5,278.4
63,276.3,281.3
64,271.4,289.1
65,271.4,294.0
66,283.1,297.9
67,287.0,316.5
68,300.7,318.5
69,304.6,322.4
70,317.3,335.1
71,325.1,342.9
72,327.1,356.6
73,326.1,363.4
74,324.1,373.2
75,321.2,381.0
76,313.4,385.9
77,310.5,392.7
78,297.8,400.5
79,307.6,393.7
80,281.2,413.3
81,283.2,410.4
82,292.0,401.6
83,288.1,408.4
84,300.8,398.6
85,289.1,404.5
86,275.4,402.5
87,287.1,399.6
88,269.5,395.7
89,293.9,391.8
90,271.4,391.8
91,283.1,388.9
92,278.2,387.9
93,264.5,388.9
94,278.2,378.1
95,261.6,383.0
96,286.0,377.1
97,252.8,383.0
98,286.0,372.2
99,257.6,383.0
100,279.1,373.2
101,269.3,381.0
102,265.4,380.0
103,279.1,374.1
104,252.7,374.1
105,286.9,366.3
106,248.8,375.1
107,288.9,364.3
108,257.6,372.1
109,284.0,364.3
110,261.5,369.2
111,278.1,360.4
112,274.2,357.5
113,275.2,362.4
114,281.1,355.6
115,265.5,362.4
116,280.2,348.7
117,252.8,359.5
118,286.0,341.9
119,248.8,355.6
120,280.1,346.8
121,251.7,358.5
122,272.2,343.8
123,269.3,343.8
124,260.5,343.8
125,277.1,340.9
126,258.5,340.9
127,282.0,322.3
128,267.3,332.1
129,283.9,318.4
130,257.5,333.1
131,279.0,311.6
132,247.7,329.2
133,277.0,311.6
134,258.4,327.2
135,271.1,315.5
136,265.2,317.5
137,264.2,316.5
138,272.0,301.8
139,271.0,303.8
140,278.8,292.1
141,271.0,295.0
142,278.8,272.5
143,273.9,282.3
144,271.0,277.4
145,271.0,270.6
146,270.0,281.4
147,262.2,263.8
148,247.5,254.0
149,248.5,258.9
150,243.6,256.0
151,231.9,256.0
152,224.1,253.1
153,223.1,252.1
154,224.1,257.0
155,215.3,259.0
156,215.3,262.9
157,205.5,263.9
158,206.5,268.8
159,210.4,275.6
160,202.6,278.5
161,203.6,289.3
162,204.6,291.3
163,208.5,299.1
164,195.8,308.9
165,209.5,310.9
166,201.7,317.7
167,201.7,323.6
168,209.5,327.5
169,204.6,346.1
170,209.5,348.1
171,208.5,354.9
172,208.5,361.7
173,212.4,359.7
174,223.2,367.5
175,225.2,370.4
176,229.1,373.3
177,238.9,377.2
178,246.7,388.0
179,246.7,390.9
180,258.4,390.9
181,267.2,393.8
182,278.0,396.7
183,281.9,394.7
184,289.7,402.5
185,297.5,401.5
186,307.3,394.7
187,306.3,396.7
188,290.7,394.7
189,321.0,377.1
190,288.7,390.8
191,300.4,386.9
192,278.9,379.1
193,306.3,371.3
194,270.1,381.1
195,313.1,369.4
196,275.9,378.2
197,311.1,372.3
198,278.8,380.1
199,298.4,368.4
200,288.6,373.3
201,294.5,379.2
202,293.5,372.4
203,282.7,378.3
204,307.1,357.8
205,276.8,374.4
206,310.1,363.6
207,279.8,378.3
208,309.1,362.7
209,283.7,372.5
210,300.3,366.6
211,288.6,364.6
212,291.5,370.5
213,299.3,361.7
214,287.6,368.5
215,297.4,359.7
216,286.6,366.5
217,310.1,349.9
218,280.8,365.5
219,305.2,345.0
220,275.9,361.6
221,300.3,343.0
222,276.8,351.8
223,292.4,334.2
224,276.8,348.9
225,288.5,339.1
226,268.0,338.1
227,268.0,335.2
228,273.9,330.3
229,262.2,335.2
230,290.6,323.5
231,264.2,337.2
232,275.0,331.3
233,269.1,323.5
234,267.1,309.8
235,236.8,323.5
236,272.0,309.8
237,243.6,317.6
238,244.6,316.6
239,248.5,311.7
240,228.9,315.6
241,229.9,304.8
242,232.8,296.0
243,232.8,290.1
244,250.4,290.1
245,226.9,281.3
246,231.8,281.3
247,220.1,276.4
248,222.1,269.6
249,223.1,266.7
250,223.1,256.9
251,225.1,251.0
252,228.0,245.1
253,230.0,253.9
254,232.9,251.9
255,238.8,237.2
256,246.6,242.1
257,252.5,240.1
258,269.1,236.2
259,279.9,237.2
260,284.8,235.2
261,288.7,235.2
262,296.5,233.2
263,301.4,233.2
264,303.4,232.2
265,299.5,245.9
266,302.4,255.7
267,306.3,262.5
268,310.2,272.3
269,324.9,277.2
270,338.6,290.9
271,346.4,295.8
272,347.4,303.6
273,350.3,308.5
274,352.3,332.0
275,354.3,340.8
276,346.5,343.7
277,331.8,356.4
278,331.8,362.3
279,333.8,367.2
280,325.0,365.2
281,308.4,362.3
282,302.5,373.1
283,303.5,365.3
284,297.6,370.2
285,304.4,370.2
286,296.6,364.3
287,289.8,373.1
288,300.6,360.4
289,275.2,355.5
290,304.5,354.5
291,276.1,358.4
292,299.6,350.6
293,280.0,350.6
294,298.6,343.8
295,279.0,355.5
296,294.6,347.7
297,279.0,351.6
298,291.7,348.7
299,279.0,352.6
300,284.9,346.7
301,294.7,343.8
302,279.1,345.8
303,285.9,339.0
304,272.2,345.8
305,286.9,338.0
306,263.4,340.0
307,286.9,337.1
308,272.2,339.1
309,285.9,335.2
310,270.3,329.3
311,284.0,334.2
312,270.3,331.3
313,281.1,324.5
314,275.2,325.5
315,265.4,324.5
316,282.0,313.7
317,270.3,319.6
318,284.0,313.7
319,279.1,315.7
320,276.2,308.9
321,259.6,309.9
322,282.1,303.1
323,252.8,303.1
324,281.2,296.3
325,252.8,299.2
326,269.4,291.4
327,249.8,293.4
328,280.1,289.5
329,260.5,291.5
330,282.0,287.6
331,256.6,294.4
332,285.9,284.6
333,260.5,284.6
334,284.0,278.7
335,263.5,284.6
336,273.3,275.8
337,277.2,265.0
338,270.4,269.9
339,289.0,246.4
340,273.4,261.1
341,281.2,251.3
342,280.2,256.2
343,280.2,246.4
344,278.2,238.6
345,273.3,238.6
346,273.3,228.8
347,273.3,232.7
348,267.4,225.9
349,267.4,221.0
350,264.5,227.8
351,249.8,222.9
352,247.8,225.8
353,242.9,228.7
354,243.9,225.8
355,238.0,227.8
356,238.0,233.7
357,227.2,238.6
358,216.4,238.6
359,213.5,241.5
360,216.4,249.3
361,218.4,255.2
362,208.6,260.1
363,211.5,267.9
364,213.5,275.7
365,207.6,284.5
366,206.6,296.2
367,188.0,321.6
368,193.9,322.6
369,196.8,320.6
370,192.9,324.5
371,190.9,329.4
372,197.7,326.5
373,194.8,331.4
374,201.6,338.2
375,208.4,344.1
376,208.4,345.1
377,217.2,346.1
378,217.2,342.2
379,224.0,346.1
380,235.7,346.1
381,242.5,343.2
382,261.1,342.2
383,267.0,333.4
384,260.2,333.4
385,274.9,337.3
386,261.2,338.3
387,254.4,332.4
388,275.9,331.4
389,247.5,333.4
390,278.8,324.6
391,247.5,332.4
392,271.9,318.7
393,246.5,335.3
394,264.1,318.6
395,250.4,322.5
396,259.2,312.7
397,263.1,306.8
398,251.4,319.5
399,262.2,309.7
400,236.8,322.4
401,264.2,307.7
402,236.8,321.4
403,267.1,299.9
404,240.7,316.5
405,265.1,301.8
406,245.5,318.4
407,262.1,305.7
408,256.2,310.6
409,255.3,308.6
410,258.2,304.7
411,247.4,310.6
412,258.2,301.8
413,240.6,316.5
414,265.0,299.9
415,237.6,309.7
416,254.2,300.9
417,243.4,304.8
418,265.9,289.2
419,230.7,301.9
420,252.2,285.3
421,229.7,297.0
422,247.3,279.4
423,233.6,292.1
424,236.5,287.2
425,254.1,272.5
426,226.7,288.1
427,258.0,273.4
428,232.6,281.2
429,248.2,271.4
430,237.4,274.3
431,234.5,275.3
432,246.2,259.7
433,214.9,277.3
434,223.7,270.5
435,220.8,272.5
436,220.3,272.5
437,219.8,272.5
438,217.8,274.5
439,211.9,271.6
440,209.0,271.6
441,204.1,268.7
442,200.7,267.7
443,197.3,266.7
444,202.2,264.7
445,200.2,264.7
446,199.2,260.8
447,198.2,256.9
448,193.8,253.5
449,189.4,250.1
450,201.1,250.1
451,203.1,249.1
452,191.4,244.2
453,201.2,249.1
454,185.6,239.3
455,194.4,237.3
456,183.6,226.5
457,170.9,206.9
458,170.9,203.0
459,170.9,202.0
460,170.9,197.1
461,170.9,191.2
462,186.5,181.4
463,176.7,174.6
464,180.6,171.7
465,188.4,167.8
466,198.2,168.8
467,198.2,157.1
468,209.0,157.1
469,209.0,162.0
470,213.9,160.0
471,234.4,146.3
472,232.4,150.2
473,239.2,144.3
474,252.9,137.5
475,247.0,143.4
476,259.7,138.5
477,257.7,140.5
478,258.7,142.5
479,267.5,148.4
480,264.6,150.4
481,272.4,156.3
482,272.4,163.1
483,285.1,178.7
484,286.1,184.6
485,284.1,189.5
486,283.1,190.5
487,276.3,197.3
488,276.3,210.0
489,270.4,214.9
490,262.6,216.9
491,260.6,213.0
492,258.6,217.9
493,257.6,222.8
494,257.6,228.7
495,248.8,231.6
496,248.8,235.5
497,248.8,245.3
498,251.7,253.1
499,253.7,262.9
500,257.6,260.0
501,265.4,272.7
502,265.4,281.5
503,262.5,303.0
504,270.3,303.0
505,275.2,318.6
506,280.6,316.65
507,286.0,314.7
508,286.0,319.6
509,285.0,324.5
510,287.95,324.0
511,290.9,323.5
512,295.8,323.5
513,299.7,329.4
514,316.3,323.5
515,316.3,321.5
516,322.2,315.6
517,339.8,309.7
518,345.7,315.6
519,344.7,313.6
520,350.6,309.7
521,363.3,298.9
522,367.2,295.0
523,376.0,297.0
524,380.9,294.1
525,390.7,294.1
526,393.6,286.3
527,394.6,286.3
528,389.7,285.3
529,396.5,287.3
530,392.6,288.3
531,392.6,283.4
532,389.7,284.4
533,387.7,283.4
534,386.7,281.4
535,386.7,277.5
536,381.8,279.5
537,383.8,278.5
538,385.8,272.6
539,382.9,273.6
540,379.0,276.5
541,382.9,274.5
542,381.9,273.5
543,380.9,273.5
544,378.9,276.4
545,375.0,272.5
546,376.0,273.5
547,378.9,269.6
548,376.0,271.6
549,374.0,272.6
550,373.0,273.6
551,374.0,268.7
552,372.0,269.7
553,370.0,270.7
554,371.0,272.15
555,372.0,273.6
556,367.1,269.7
557,367.6,269.2
558,368.1,268.7
559,368.1,271.6
560,369.1,270.6
561,371.1,270.6
562,371.16,270.67
563,371.23,270.74
564,371.29,270.81
565,371.36,270.89
566,371.42,270.96
567,371.49,271.03
568,371.55,271.1
569,371.61,271.17
570,371.68,271.24
571,371.74,271.31
572,371.81,271.39
573,371.87,271.46
574,371.94,271.53
575,372.0,271.6
576,372.0,271.02
577,372.0,270.44
578,372.0,269.86
579,372.0,269.28
580,372.0,268.7
581,371.84,268.31
582,371.67,267.92
583,371.51,267.53
584,371.35,267.14
585,371.18,266.75
586,371.02,266.36
587,370.86,265.97
588,370.69,265.58
589,370.53,265.19
590,370.37,264.8
591,370.2,264.41
592,370.04,264.02
593,369.88,263.63
594,369.71,263.24
595,369.55,262.85
596,369.39,262.46
597,369.22,262.07
598,369.06,261.68
599,368.9,261.29
600,368.73,260.9
601,368.57,260.51
602,368.41,260.12
603,368.24,259.73
604,368.08,259.34
605,367.92,258.95
606,367.75,258.56
607,367.59,258.17
608,367.43,257.78
609,367.26,257.39
610,367.1,257.0
611,366.95,256.66
612,366.8,256.32
613,366.65,255.98
614,366.5,255.65
615,366.35,255.31
616,366.2,254.97
617,366.05,254.63
618,365.9,254.29
619,365.75,253.95
620,365.6,253.62
621,365.45,253.28
622,365.3,252.94
623,365.15,252.6
624,365.0,252.26
625,364.85,251.92
626,364.7,251.58
627,364.55,251.25
628,364.4,250.91
629,364.25,250.57
630,364.1,250.23
631,363.95,249.89
632,363.8,249.55
633,363.65,249.22
634,363.5,248.88
635,363.35,248.54
636,363.2,248.2
637,363.72,248.35
638,364.25,248.51
639,364.77,248.66
640,365.29,248.82
641,365.82,248.97
642,366.34,249.12
643,366.86,249.28
644,367.38,249.43
645,367.91,249.58
646,368.43,249.74
647,368.95,249.89
648,369.48,250.05
649,370.0,250.2
650,369.93,249.55
651,369.87,248.89
652,369.8,248.24
653,369.73,247.59
654,369.67,246.93
655,369.6,246.28
656,369.53,245.63
657,369.47,244.97
658,369.4,244.32
659,369.33,243.67
660,369.27,243.01
661,369.2,242.36
662,369.13,241.71
663,369.07,241.05
664,369.0,240.4
665,368.86,240.44
666,368.71,240.47
667,368.57,240.51
668,368.42,240.55
669,368.28,240.59
670,368.13,240.62
671,367.99,240.66
672,367.84,240.7
673,367.7,240.73
674,367.56,240.77
675,367.41,240.81
676,367.27,240.84
677,367.12,240.88
678,366.98,240.92
679,366.83,240.96
680,366.69,240.99
681,366.54,241.03
682,366.4,241.07
683,366.26,241.1
684,366.11,241.14
685,365.97,241.18
686,365.82,241.21
687,365.68,241.25
688,365.53,241.29
689,365.39,241.33
690,365.24,241.36
691,365.1,241.4
692,365.05,242.02
693,364.99,242.63
694,364.94,243.25
695,364.89,243.86
696,364.84,244.48
697,364.78,245.09
698,364.73,245.71
699,364.68,246.33
700,364.63,246.94
701,364.57,247.56
702,364.52,248.17
703,364.47,248.79
704,364.42,249.41
705,364.36,250.02
706,364.31,250.64
707,364.26,251.25
708,364.21,251.87
709,364.15,252.48
710,364.1,253.1
711,363.92,252.65
712,363.74,252.21
713,363.55,251.76
714,363.37,251.32
715,363.19,250.87
716,363.01,250.43
717,362.83,249.98
718,362.65,249.54
719,362.46,249.09
720,362.28,248.65
721,362.1,248.2
722,361.13,246.9
723,360.17,245.6
724,359.2,244.3
